%YAML 1.1
%TAG !u! tag:unity3d.com,2011:
--- !u!114 &11400000
MonoBehaviour:
  m_ObjectHideFlags: 0
  m_CorrespondingSourceObject: {fileID: 0}
  m_PrefabInstance: {fileID: 0}
  m_PrefabAsset: {fileID: 0}
  m_GameObject: {fileID: 0}
  m_Enabled: 1
  m_EditorHideFlags: 0
  m_Script: {fileID: 11500000, guid: bbb281ee3bf0b054c82ac2347e9e782c, type: 3}
  m_Name: Default Local Group
  m_EditorClassIdentifier: 
  m_GroupName: Default Local Group
  m_Data:
    m_SerializedData: []
  m_GUID: 98474f76a67c4a2499b4495046b38782
  m_SerializeEntries: []
  m_ReadOnly: 0
  m_Settings: {fileID: 11400000, guid: 7d0ae71248dfb2e48b92f849689b22d8, type: 2}
  m_SchemaSet:
    m_Schemas:
    - {fileID: 11400000, guid: 300744b279d66a147957f269e8941dca, type: 2}
    - {fileID: 11400000, guid: 133e6e4808617fa4295be13a3fcbb52e, type: 2}
