%YAML 1.1
%TAG !u! tag:unity3d.com,2011:
--- !u!114 &11400000
MonoBehaviour:
  m_ObjectHideFlags: 0
  m_CorrespondingSourceObject: {fileID: 0}
  m_PrefabInstance: {fileID: 0}
  m_PrefabAsset: {fileID: 0}
  m_GameObject: {fileID: 0}
  m_Enabled: 1
  m_EditorHideFlags: 0
  m_Script: {fileID: 11500000, guid: 468a46d0ae32c3544b7d98094e6448a9, type: 3}
  m_Name: AddressableAssetSettings
  m_EditorClassIdentifier: 
  m_DefaultGroup: 98474f76a67c4a2499b4495046b38782
  m_OptimizeCatalogSize: 0
  m_BuildRemoteCatalog: 0
  m_BundleLocalCatalog: 0
  m_DisableCatalogUpdateOnStart: 0
  m_UniqueBundleIds: 0
  m_maxConcurrentWebRequests: 500
  m_ContiguousBundles: 0
  m_RemoteCatalogBuildPath:
    m_Id: c67e03f55927e8e4dac44e44b999d0d4
  m_RemoteCatalogLoadPath:
    m_Id: e20e5f8959800bc4ca5b0dd0477af867
  m_overridePlayerVersion: 
  m_GroupAssets:
  - {fileID: 11400000, guid: a66e0291e84484e4ca6be85abbe9504e, type: 2}
  - {fileID: 11400000, guid: dd6fc6e701568ec4490d2b021126f96b, type: 2}
  - {fileID: 11400000, guid: 53508f0e81195f84caed21b00213363b, type: 2}
  - {fileID: 11400000, guid: 6321d309a17cc23408d31a14af6de875, type: 2}
  - {fileID: 11400000, guid: 179178491c1359445954f852882d6f10, type: 2}
  m_BuildSettings:
    m_CompileScriptsInVirtualMode: 0
    m_CleanupStreamingAssetsAfterBuilds: 1
    m_LogResourceManagerExceptions: 1
    m_BundleBuildPath: Temp/com.unity.addressables/AssetBundles
  m_ProfileSettings:
    m_Profiles:
    - m_InheritedParent: 
      m_Id: d4f008f1ce5eac94484aad5e911b0e42
      m_ProfileName: Default
      m_Values:
      - m_Id: cceb2c2085f59564dad2c4422100cbfe
        m_Value: '[UnityEditor.EditorUserBuildSettings.activeBuildTarget]'
      - m_Id: e2f5868a0eb431240b7eabb384168caf
        m_Value: '[UnityEngine.AddressableAssets.Addressables.BuildPath]/[BuildTarget]'
      - m_Id: 2a3cb6f257b87ce4a9ad1f6d77cdd31f
        m_Value: '{UnityEngine.AddressableAssets.Addressables.RuntimePath}/[BuildTarget]'
      - m_Id: c67e03f55927e8e4dac44e44b999d0d4
        m_Value: ServerData/[BuildTarget]
      - m_Id: e20e5f8959800bc4ca5b0dd0477af867
        m_Value: http://localhost/[BuildTarget]
    m_ProfileEntryNames:
    - m_Id: cceb2c2085f59564dad2c4422100cbfe
      m_Name: BuildTarget
      m_InlineUsage: 0
    - m_Id: e2f5868a0eb431240b7eabb384168caf
      m_Name: LocalBuildPath
      m_InlineUsage: 0
    - m_Id: 2a3cb6f257b87ce4a9ad1f6d77cdd31f
      m_Name: LocalLoadPath
      m_InlineUsage: 0
    - m_Id: c67e03f55927e8e4dac44e44b999d0d4
      m_Name: RemoteBuildPath
      m_InlineUsage: 0
    - m_Id: e20e5f8959800bc4ca5b0dd0477af867
      m_Name: RemoteLoadPath
      m_InlineUsage: 0
    m_ProfileVersion: 1
  m_LabelTable:
    m_LabelNames:
    - default
  m_SchemaTemplates: []
  m_GroupTemplateObjects:
  - {fileID: 11400000, guid: 321bce0ad55ebd245be1103c1c018ecc, type: 2}
  m_InitializationObjects: []
  m_CertificateHandlerType:
    m_AssemblyName: 
    m_ClassName: 
  m_ActivePlayerDataBuilderIndex: 3
  m_DataBuilders:
  - {fileID: 11400000, guid: b3dd37f80a5bb094bbfab51faed3bc1b, type: 2}
  - {fileID: 11400000, guid: 60393649d93a3df429ad009dc7861880, type: 2}
  - {fileID: 11400000, guid: 56ac4c9d623b84f4bac972f09728ae68, type: 2}
  - {fileID: 11400000, guid: f28c5797fd2a678469e185aa44de1f25, type: 2}
  m_ActiveProfileId: d4f008f1ce5eac94484aad5e911b0e42
  m_HostingServicesManager:
    m_HostingServiceInfos: []
    m_Settings: {fileID: 11400000}
    m_NextInstanceId: 0
    m_RegisteredServiceTypeRefs: []
